type,name,ext,parDir,parDirInd,link
blob,README,md,top/pixels/modules,4,https://gitlab.cern.ch/atlas-itk/sw/db/production_database_scripts/-/tree//master/pixels/modules/README.md
blob,README,md,top/pixels/pcbs,6,https://gitlab.cern.ch/atlas-itk/sw/db/production_database_scripts/-/tree//master/pixels/pcbs/README.md
blob,README,md,top/pixels/sensors,10,https://gitlab.cern.ch/atlas-itk/sw/db/production_database_scripts/-/tree//master/pixels/sensors/README.md
blob,README,md,top/pixels,3,https://gitlab.cern.ch/atlas-itk/sw/db/production_database_scripts/-/tree//master/pixels/README.md
